<svg xmlns="http://www.w3.org/2000/svg" version="1.0" width="500.000000" height="500.000000" preserveAspectRatio="xMidYMid meet" style=""><rect id="backgroundrect" width="100%" height="100%" x="0" y="0" fill="none" stroke="none"/>


<g class="currentLayer" style=""><title>Layer 1</title><g transform="translate(0,500) scale(0.10000000149011612,-0.10000000149011612) " fill="#ffffff" stroke="none" id="svg_1" class="selected" fill-opacity="1" opacity="1">
<path d="M1951.3793096542358,3228 l0,-403 l32,39 c17,21 53,64 80,95 c36,43 46,61 40,76 c-4,11 -7,65 -7,120 c0,88 3,107 27,157 c74,159 259,259 424,229 c133,-24 241,-107 301,-229 c25,-51 28,-68 29,-164 l1,-108 l73,-97 c40,-54 77,-102 81,-107 c5,-6 9,166 9,392 l0,402 l-545,0 l-545,0 l0,-402 z" id="svg_2" fill="#ffffff" fill-opacity="1" opacity="1"/>
<path d="M2391.379309654236,3481 c-95,-31 -178,-103 -218,-189 c-26,-57 -39,-152 -28,-198 l7,-28 l48,54 l47,54 l28,-37 c16,-20 32,-37 36,-37 c5,0 70,70 145,155 c76,85 139,155 141,155 c1,0 51,-64 110,-142 c59,-79 111,-147 117,-153 c17,-18 -1,123 -22,170 c-26,60 -105,141 -166,173 c-40,20 -67,26 -135,28 c-47,2 -96,0 -110,-5 z" id="svg_3" fill="#ffffff" fill-opacity="1" opacity="1"/>
<path d="M2548.379309654236,3278 c-25,-29 -45,-54 -43,-55 c1,-1 21,2 45,8 c28,6 55,6 79,0 c20,-6 37,-9 39,-7 c2,1 -15,26 -36,55 l-39,52 l-45,-53 z" id="svg_4" fill="#ffffff" fill-opacity="1" opacity="1"/>
<path d="M2491.379309654236,3165 c-45,-11 -63,-22 -98,-61 c-24,-26 -41,-53 -38,-60 c3,-7 55,-74 116,-148 l112,-136 l219,0 l220,0 l-30,43 c-17,23 -84,112 -149,197 c-116,152 -119,155 -167,167 c-65,15 -118,14 -185,-2 z" id="svg_5" fill="#ffffff" fill-opacity="1" opacity="1"/>
<path d="M2192.379309654236,3030 l-52,-60 l33,8 c42,9 94,9 136,0 l33,-8 l-47,60 c-26,33 -48,60 -49,60 c-1,0 -25,-27 -54,-60 z" id="svg_6" fill="#ffffff" fill-opacity="1" opacity="1"/>
<path d="M2138.379309654236,2918 c-42,-9 -55,-19 -110,-82 l-61,-71 l137,-3 c75,-1 198,-1 272,0 l135,3 l-58,71 c-55,69 -59,71 -118,83 c-71,13 -130,13 -197,-1 z" id="svg_7" fill="#ffffff" fill-opacity="1" opacity="1"/>
<path d="M1951.3793096542358,2680 l0,-30 l545,0 l545,0 l0,30 l0,30 l-545,0 l-545,0 l0,-30 z" id="svg_8" fill="#ffffff" fill-opacity="1" opacity="1"/>
<path d="M1951.3793096542358,2570 l0,-30 l543,2 l542,3 l3,28 l3,27 l-545,0 l-546,0 l0,-30 z" id="svg_9" fill="#ffffff" fill-opacity="1" opacity="1"/>
<path d="M4223.379309654236,2275 c-162,-50 -221,-219 -116,-335 c60,-66 111,-84 239,-84 c95,0 116,3 157,23 c51,24 103,77 119,118 c14,38 11,122 -7,159 c-23,48 -85,98 -145,117 c-62,20 -186,21 -247,2 zm226,-61 c82,-34 121,-103 101,-178 c-27,-100 -160,-152 -294,-115 c-79,22 -139,113 -121,183 c9,37 56,87 101,107 c51,23 161,25 213,3 z" id="svg_10" fill="#ffffff" fill-opacity="1" opacity="1"/>
<path d="M585.3793096542358,2073 l92,-208 l50,-3 l49,-3 l74,177 c49,118 76,171 82,162 c5,-7 39,-86 76,-176 l68,-163 l49,3 l50,3 l88,200 c48,109 88,203 88,207 c0,4 -17,8 -38,8 l-38,0 l-74,-175 c-41,-96 -77,-171 -81,-167 c-3,4 -37,82 -75,175 l-68,167 l-51,0 l-51,0 l-68,-167 c-37,-93 -71,-171 -75,-175 c-3,-4 -40,71 -81,167 l-75,175 l-41,0 l-42,0 l92,-207 z" id="svg_11" fill="#ffffff" fill-opacity="1" opacity="1"/>
<path d="M1391.3793096542358,2070 l0,-210 l210,0 l210,0 l0,30 l0,30 l-170,0 l-170,0 l0,65 l0,65 l155,0 l155,0 l0,25 l0,25 l-155,0 l-155,0 l0,60 l0,60 l170,0 l170,0 l0,30 l0,30 l-210,0 l-210,0 l0,-210 z" id="svg_12" fill="#ffffff" fill-opacity="1" opacity="1"/>
<path d="M1861.3793096542358,2070 l0,-210 l40,0 l40,0 l0,85 l0,85 l88,0 c49,0 98,-6 112,-13 c14,-7 39,-39 57,-72 c37,-70 64,-95 103,-95 c40,0 76,31 63,55 c-7,12 -13,14 -17,6 c-16,-25 -46,-11 -67,32 c-12,23 -30,54 -41,70 c-19,26 -19,27 -1,33 c45,13 69,32 86,65 c32,66 -3,137 -79,158 c-22,6 -117,11 -211,11 l-173,0 l0,-210 zm363,137 c49,-32 44,-97 -9,-117 c-14,-6 -81,-10 -150,-10 l-124,0 l0,76 l0,76 l128,-4 c100,-3 135,-7 155,-21 z" id="svg_13" fill="#ffffff" fill-opacity="1" opacity="1"/>
<path d="M2515.379309654236,2113 c-48,-93 -97,-187 -110,-210 l-23,-43 l43,0 c40,0 43,2 64,45 l22,45 l134,0 l135,0 l27,-45 c24,-41 29,-45 66,-45 l39,0 l-108,210 l-108,210 l-47,0 l-47,0 l-87,-167 zm186,7 c27,-55 50,-102 50,-105 c0,-3 -47,-5 -105,-5 c-58,0 -105,3 -105,6 c0,7 104,204 107,204 c2,0 25,-45 53,-100 z" id="svg_14" fill="#ffffff" fill-opacity="1" opacity="1"/>
<path d="M2951.379309654236,2070 l0,-210 l35,0 l35,0 l0,170 c0,94 3,170 8,169 c4,0 74,-76 156,-170 l148,-169 l49,0 l49,0 l0,210 l0,210 l-35,0 l-35,0 l0,-165 c0,-91 -4,-165 -9,-165 c-5,0 -75,74 -155,165 l-147,165 l-49,0 l-50,0 l0,-210 z" id="svg_15" fill="#ffffff" fill-opacity="1" opacity="1"/>
<path d="M3491.379309654236,2069 l0,-211 l178,4 c181,5 203,9 266,52 c86,58 87,247 1,314 c-51,40 -117,52 -287,52 l-158,0 l0,-211 zm367,128 c42,-22 67,-70 66,-128 c-1,-56 -24,-99 -67,-125 c-25,-15 -56,-20 -158,-22 l-128,-4 l0,152 l0,152 l128,-4 c96,-3 135,-8 159,-21 z" id="svg_16" fill="#ffffff" fill-opacity="1" opacity="1"/>
</g></g></svg>